…
#> 1      12              1          885          6970.             1.17
#> # … with 3 more variables: max_times_crossed <int>,
#> #   bundle_most_crossed <int>, p_multiple_crossed <dbl>
tidy(penalized_run)
#> # A tibble: 6 x 2
#>   bundle_id     n
#>       <int> <int>
#> 1         1     1
#> 2         2     1
#> 3         3     1
#> 4         4     2
#> 5         5     1
#> 6         6     1
augment(penalized_run)
#> # A tibble: 160 x 6
#>    index step_id edge_id bundle_id times_edge_crossed times_bundle_crossed
#>    <int>   <int>   <int>     <int>              <int>                <int>
#>  1     1       1       2        NA                  1                    0
#>  2     2       1     542        NA                  1                    0
#>  3     3       1     879        NA                  1                    0
#>  4     4       1    2678        NA                  1                    0
#>  5     5       1    2166        NA                  1                    0
#>  6     6       1    2949        NA                  1                    0
#>  7     7       1    5232        NA                  1                    0
#>  8     8       1     330        NA                  1                    0
#>  9     9       1    2473        NA                  1                    0
#> 10    10       1    4139        NA                  1                    0
#> # … with 150 more rows
```
